[
	{
		"websiteId": "4f8b36d00000000000000001",
		"date": "2019-04-01T00:00:00.000Z",
		"chats": 121,
		"missedChats": 0
	},
	{
		"websiteId": "4f8b36d00000000000000002",
		"date": "2019-04-01T00:00:00.000Z",
		"chats": 13,
		"missedChats": 0
	},
	{
		"websiteId": "4f8b36d00000000000000003",
		"date": "2019-04-01T00:00:00.000Z",
		"chats": 232,
		"missedChats": 9
	},
	{
		"websiteId": "4f8b36d00000000000000004",
		"date": "2019-04-01T00:00:00.000Z",
		"chats": 9,
		"missedChats": 0
	},
	{
		"websiteId": "4f8b36d00000000000000005",
		"date": "2019-04-01T00:00:00.000Z",
		"chats": 0,
		"missedChats": 0
	},
	{
		"websiteId": "4f8b36d00000000000000006",
		"date": "2019-04-01T00:00:00.000Z",
		"chats": 0,
		"missedChats": 0
	},
	{
		"websiteId": "4f8b36d00000000000000007",
		"date": "2019-04-01T00:00:00.000Z",
		"chats": 0,
		"missedChats": 1
	},
	{
		"websiteId": "4f8b36d00000000000000008",
		"date": "2019-04-01T00:00:00.000Z",
		"chats": 0,
		"missedChats": 0
	},
	{
		"websiteId": "4f8b36d00000000000000007",
		"date": "2019-04-02T00:00:00.000Z",
		"chats": 0,
		"missedChats": 1
	},
	{
		"websiteId": "4f8b36d00000000000000006",
		"date": "2019-04-02T00:00:00.000Z",
		"chats": 0,
		"missedChats": 1
	},	
	{
		"websiteId": "4f8b36d00000000000000002",
		"date": "2019-04-02T00:00:00.000Z",
		"chats": 12,
		"missedChats": 3
	},
	{
		"websiteId": "4f8b36d00000000000000008",
		"date": "2019-04-02T00:00:00.000Z",
		"chats": 9,
		"missedChats": 0
	},	
	{
		"websiteId": "4f8b36d00000000000000006",
		"date": "2019-04-03T00:00:00.000Z",
		"chats": 0,
		"missedChats": 0
	},
	{
		"websiteId": "4f8b36d00000000000000008",
		"date": "2019-04-03T00:00:00.000Z",
		"chats": 8,
		"missedChats": 2
	},
	{
		"websiteId": "4f8b36d00000000000000005",
		"date": "2019-04-03T00:00:00.000Z",
		"chats": 0,
		"missedChats": 0
	}
]